<?xml version="1.0" encoding="UTF-8"?>
<OAI-PMH xmlns="http://www.openarchives.org/OAI/2.0/"
         xmlns:xsi="http://www.w3.org/2001/XMLSchema-instance"
         xsi:schemaLocation="http://www.openarchives.org/OAI/2.0/
         http://www.openarchives.org/OAI/2.0/OAI-PMH.xsd">
  <responseDate>2002-06-01T19:20:30Z</responseDate>
  <request verb="ListIdentifiers" from="1998-01-15"
           metadataPrefix="oldarXiv"
           set="physics:hep">http://an.oa.org/OAI-script</request>
  <ListIdentifiers>
   <header>
    <identifier>oai:arXiv.org:hep-th/9801001</identifier>
    <datestamp>1999-02-23</datestamp>
    <setSpec>physic:hep</setSpec>
   </header>
   <header>
    <identifier>oai:arXiv.org:hep-th/9801002</identifier>
    <datestamp>1999-03-20</datestamp>
    <setSpec>physic:hep</setSpec>
    <setSpec>physic:exp</setSpec>
   </header>
   <header>
    <identifier>oai:arXiv.org:hep-th/9801005</identifier>
    <datestamp>2000-01-18</datestamp>
    <setSpec>physic:hep</setSpec>
   </header>
   <header status="deleted">
    <identifier>oai:arXiv.org:hep-th/9801010</identifier>
    <datestamp>1999-02-23</datestamp>
    <setSpec>physic:hep</setSpec>
    <setSpec>math</setSpec>
   </header>
   <resumptionToken expirationDate="2002-06-01T23:20:00Z"
      completeListSize="6"
      cursor="0">xxx45abttyz</resumptionToken>
 </ListIdentifiers>
</OAI-PMH>